# A tibble: 21 x 2
   AuthorID count
      <int> <int>
 1      110   103
 2      118   155
 3     1582   103
 4     5123   137
 5    11696   119
 6    32249   137
 7    32925   113
 8    34292   172
 9    39170   542
10    41237   183
# ... with 11 more rows
